%YAML 1.1
%TAG !u! tag:unity3d.com,2011:
--- !u!114 &11400000
MonoBehaviour:
  m_ObjectHideFlags: 0
  m_CorrespondingSourceObject: {fileID: 0}
  m_PrefabInstance: {fileID: 0}
  m_PrefabAsset: {fileID: 0}
  m_GameObject: {fileID: 0}
  m_Enabled: 1
  m_EditorHideFlags: 0
  m_Script: {fileID: 11500000, guid: 1944726a57bb1c04ca940fc1e41ee5ff, type: 3}
  m_Name: Caelia
  m_EditorClassIdentifier: 
  FullName: Caelia Raine
  Uid: caelia
  ProfilePic: {fileID: 21300000, guid: 1ac083baf42bd1944b97dcfe141e2bda, type: 3}
  InitialMessages:
  - Text: Hi, I am your wife
    Sender: 0
  - Text: Hi, I am the player
    Sender: 1
  - Text: Good, don't get me killed
    Sender: 0
